# $Id: logfiles.sbcat-alley.pas.sa.earthlink.net,v 1.4 2011/01/18 20:01:00 pat.larkin Exp $

# This file is only used by 'logfiles2cringerconf.sh' 
# (usually at dpkg install time) to build the real cringer.conf XML file

############################################################
###  We are going to take down the PAS DR instance
### Quiescing this server
############################################################


