# $Id: logfiles.sbcat-blanco.atl.sa.earthlink.net,v 1.15 2013/02/08 12:04:14 nmiller Exp $

# This file is only used by 'logfiles2cringerconf.sh' 
# (usually at dpkg install time) to build the real cringer.conf XML file

# Here we define the indexer server to send to 
SERVER=sbindex-merlin.atl.sa.earthlink.net


# list file's here using the format:
# [radius|mail|other]:/path/to/file/as/seen/on/cringer:TZspec

# MFU Boxes
mail:/ms/uberlogs/A/uberloginfo.mfu-acorn:EST5EDT
mail:/ms/uberlogs/A/uberloginfo.mfu-pecan:EST5EDT
mail:/ms/uberlogs/A/uberloginfo.mfu-roller:EST5EDT

# PeoplePC POP - SMTP - MFU Servers
pop:/ms/uberlogs/D/uberloginfo.amos:EST5EDT
pop:/ms/uberlogs/D/uberloginfo.dennison:EST5EDT
pop:/ms/uberlogs/D/uberloginfo.dickinson:EST5EDT
pop:/ms/uberlogs/D/uberloginfo.emory:EST5EDT
pop:/ms/uberlogs/D/uberloginfo.francis:EST5EDT
pop:/ms/uberlogs/D/uberloginfo.jacob:EST5EDT

# Gigmail POP - IMAP - MFU Proxy Servers
pop:/ms/uberlogs/A/uberloginfo.mp-devil:EST5EDT
pop:/ms/uberlogs/A/uberloginfo.mp-grizzled:EST5EDT
pop:/ms/uberlogs/A/uberloginfo.mp-nourish:EST5EDT
pop:/ms/uberlogs/A/uberloginfo.mp-rally:EST5EDT
pop:/ms/uberlogs/A/uberloginfo.mp-resolute:EST5EDT
pop:/ms/uberlogs/A/uberloginfo.mp-serious:EST5EDT
pop:/ms/uberlogs/A/uberloginfo.mp-shopper:EST5EDT
pop:/ms/uberlogs/A/uberloginfo.mp-sieze:EST5EDT
pop:/ms/uberlogs/A/uberloginfo.mp-staunch:EST5EDT
pop:/ms/uberlogs/A/uberloginfo.mp-wonder:EST5EDT
pop:/ms/uberlogs/D/uberloginfo.msmp-nip:EST5EDT
pop:/ms/uberlogs/D/uberloginfo.msmp-remorse:EST5EDT
pop:/ms/uberlogs/D/uberloginfo.msmp-reproach:EST5EDT
pop:/ms/uberlogs/D/uberloginfo.ppcmp-gentle:EST5EDT
pop:/ms/uberlogs/D/uberloginfo.ppcmp-ruddy:EST5EDT
pop:/ms/uberlogs/D/uberloginfo.ppcmp-swindle:EST5EDT
pop:/ms/uberlogs/D/uberloginfo.iomp-moorhen:EST5EDT
pop:/ms/uberlogs/D/uberloginfo.iomp-morillon:EST5EDT
