# $Id: logfiles.radius-third.qts.sa.earthlink.net,v 1.4 2011/08/17 15:58:22 pat.larkin Exp $

# This file is only used by 'logfiles2cringerconf.sh' 
# (usually at dpkg install time) to build the real cringer.conf XML file

# Here we define the indexer server to send to 
SERVER=seaborg-indexer.atl.sa.earthlink.net



# list file's here using the format:
# [radius|mail|other]:/path/to/file/as/seen/on/cringer:TZspec


# RadRev servers
radius:/ms/logs//uberlogs/uberlog.radius-third.qts.sa.earthlink.net:EST5EDT


