# $Id: logfiles.sbcat-resume.atl.sa.earthlink.net,v 1.7 2012/07/11 15:34:14 nmiller Exp $

# Logfiles to watch from "sbcat-american"
# This file is only used by 'logfiles2cringerconf.sh' 
# (usually at dpkg install time) to build the real cringer.conf XML file



# Here we define the indexer server to send to 
SERVER=sbindex-dutch.atl.sa.earthlink.net


# list file's here using the format:
# [radius|mail|other]:/path/to/file/as/seen/on/cringer:TZspec

# IMAP Servers
imap:/ms/uberlogs/A/uberloginfo.imap-barnacle:EST5EDT
imap:/ms/uberlogs/A/uberloginfo.imap-buffalo:EST5EDT
imap:/ms/uberlogs/A/uberloginfo.imap-coronado:EST5EDT
imap:/ms/uberlogs/A/uberloginfo.imap-darter:EST5EDT
imap:/ms/uberlogs/A/uberloginfo.imap-douglas:EST5EDT
imap:/ms/uberlogs/A/uberloginfo.imap-hermit:EST5EDT
imap:/ms/uberlogs/A/uberloginfo.imap-locust:EST5EDT
imap:/ms/uberlogs/A/uberloginfo.imap-mandarin:EST5EDT
imap:/ms/uberlogs/A/uberloginfo.imap-marbled:EST5EDT
imap:/ms/uberlogs/A/uberloginfo.imap-masai:EST5EDT
imap:/ms/uberlogs/A/uberloginfo.imap-netleaf:EST5EDT
imap:/ms/uberlogs/A/uberloginfo.imap-rainbow:EST5EDT
imap:/ms/uberlogs/A/uberloginfo.imap-sharp:EST5EDT
imap:/ms/uberlogs/A/uberloginfo.imap-snowy:EST5EDT
imap:/ms/uberlogs/A/uberloginfo.imap-springer:EST5EDT
imap:/ms/uberlogs/A/uberloginfo.imap-squirrel:EST5EDT
imap:/ms/uberlogs/A/uberloginfo.imap-summer:EST5EDT
imap:/ms/uberlogs/A/uberloginfo.imap-tundra:EST5EDT
imap:/ms/uberlogs/A/uberloginfo.imap-white:EST5EDT
imap:/ms/uberlogs/A/uberloginfo.imap-wolfdog:EST5EDT
imap:/ms/uberlogs/A/uberloginfo.imap-young:EST5EDT


# Mindspring IMAP Servers
imap:/ms/uberlogs/D/uberloginfo.msimap-anillado:EST5EDT
imap:/ms/uberlogs/D/uberloginfo.msimap-bedouin:EST5EDT
imap:/ms/uberlogs/D/uberloginfo.msimap-canis:EST5EDT
imap:/ms/uberlogs/D/uberloginfo.msimap-havanese:EST5EDT
imap:/ms/uberlogs/D/uberloginfo.msimap-pechera:EST5EDT
imap:/ms/uberlogs/D/uberloginfo.msimap-ruffed:EST5EDT
imap:/ms/uberlogs/D/uberloginfo.msimap-spinone:EST5EDT
imap:/ms/uberlogs/D/uberloginfo.msimap-sudan:EST5EDT

# PeoplePC IMAP Servers
imap:/ms/uberlogs/D/uberloginfo.key:EST5EDT
imap:/ms/uberlogs/D/uberloginfo.nathan:EST5EDT
imap:/ms/uberlogs/D/uberloginfo.niles:EST5EDT
imap:/ms/uberlogs/D/uberloginfo.ppcimap-mesh:EST5EDT
imap:/ms/uberlogs/D/uberloginfo.ppcimap-plant:EST5EDT
imap:/ms/uberlogs/D/uberloginfo.ppcimap-rake:EST5EDT
imap:/ms/uberlogs/D/uberloginfo.return:EST5EDT

# iOpener IMAP Servers
imap:/ms/uberlogs/A/uberloginfo.iopenimap-auklet:EST5EDT
imap:/ms/uberlogs/A/uberloginfo.iopenimap-garza:EST5EDT:EST5EDT

# POP - IMAP - MFU
pop:/ms/uberlogs/A/uberlogpop.mailapp-abdomen:EST5EDT
pop:/ms/uberlogs/A/uberlogpop.mailapp-adjure:EST5EDT
pop:/ms/uberlogs/A/uberlogpop.mailapp-cache:EST5EDT
pop:/ms/uberlogs/A/uberlogpop.mailapp-civilize:EST5EDT
pop:/ms/uberlogs/A/uberlogpop.mailapp-compile:EST5EDT
pop:/ms/uberlogs/A/uberlogpop.mailapp-decisive:EST5EDT
pop:/ms/uberlogs/A/uberlogpop.mailapp-diagnose:EST5EDT
pop:/ms/uberlogs/A/uberlogpop.mailapp-endorse:EST5EDT
pop:/ms/uberlogs/A/uberlogpop.mailapp-fancy:EST5EDT
pop:/ms/uberlogs/A/uberlogpop.mailapp-habitual:EST5EDT
